// Jest Snapshot v1, https://goo.gl/fbAQLP

exports[`Forms / Subforms / Email Matches Snapshot 1`] = `
<form
  className="ui form"
  onSubmit={[Function]}
>
  <div
    className="field"
    data-testid="subform-date-of-birth"
  >
    <div
      className="ui sixteen column grid"
    >
      <div
        className="row"
        style={
          Object {
            "paddingBottom": "0px",
          }
        }
      >
        <div
          className="fifteen wide column"
        >
          <div
            className="field bold"
          >
            <label>
              Date of Birth
            </label>
          </div>
        </div>
        <div
          className="one wide column"
        >
          <div
            className="field"
          >
            <div
              className="ui input"
              css="hidden"
            >
              <input
                aria-describedby={null}
                id="dateOfBirth"
                name="dateOfBirth"
                onBlur={[Function]}
                onChange={[Function]}
                type="hidden"
                value="--"
              />
            </div>
          </div>
        </div>
      </div>
      <div
        className="row"
        style={
          Object {
            "paddingTop": "0px",
          }
        }
      >
        <div
          className="four wide column"
        >
          <div
            className="item"
          >
            <div
              className="description"
            >
              <div
                className="field"
              >
                <label
                  htmlFor="month"
                >
                  Month
                </label>
                <div
                  className="ui input"
                  inputMode="numeric"
                >
                  <input
                    aria-describedby={null}
                    id="month"
                    name="month"
                    onBlur={[Function]}
                    onChange={[Function]}
                    onFocus={[Function]}
                    onInput={[Function]}
                    onKeyDown={[Function]}
                    onKeyUp={[Function]}
                    onMouseUp={[Function]}
                    placeholder="MM"
                    type="text"
                    value=""
                  />
                </div>
              </div>
            </div>
          </div>
        </div>
        <div
          className="four wide column"
        >
          <div
            className="item"
          >
            <div
              className="description"
            >
              <div
                className="field"
              >
                <label
                  htmlFor="day"
                >
                  Day
                </label>
                <div
                  className="ui input"
                  inputMode="numeric"
                >
                  <input
                    aria-describedby={null}
                    id="day"
                    name="day"
                    onBlur={[Function]}
                    onChange={[Function]}
                    onFocus={[Function]}
                    onInput={[Function]}
                    onKeyDown={[Function]}
                    onKeyUp={[Function]}
                    onMouseUp={[Function]}
                    placeholder="DD"
                    type="text"
                    value=""
                  />
                </div>
              </div>
            </div>
          </div>
        </div>
        <div
          className="eight wide column"
        >
          <div
            className="item"
          >
            <div
              className="description"
            >
              <div
                className="field"
              >
                <label
                  htmlFor="year"
                >
                  Year
                </label>
                <div
                  className="ui input"
                  inputMode="numeric"
                >
                  <input
                    aria-describedby={null}
                    id="year"
                    name="year"
                    onBlur={[Function]}
                    onChange={[Function]}
                    onFocus={[Function]}
                    onInput={[Function]}
                    onKeyDown={[Function]}
                    onMouseUp={[Function]}
                    placeholder="YYYY"
                    type="text"
                    value=""
                  />
                </div>
              </div>
            </div>
          </div>
        </div>
      </div>
    </div>
  </div>
</form>
`;
