{
  "openapi": "3.0.0",
  "info": {
    "title": "Treasury Prime",
    "version": "1.0.0",
    "contact": {},
    "description": "Treasury Prime API as OpenAPI 3.0 Spec"
  },
  "paths": {
    "/apply/person_application": {
      "summary": "Interact with Person Applications",
      "post": {
        "description": "Create Person Application",
        "parameters": [],
        "operationId": "createPersonApplication",
        "responses": {
          "default": {
            "description": "Person Application Creation Response",
            "content": {
              "application/json": {
                "schema": {
                  "userdata": {},
                  "updated_at": "string",
                  "physical_address": "Address",
                  "phone_number": "string",
                  "occupation": "string",
                  "middle_name": "string",
                  "id": "string",
                  "last_name": "string",
                  "first_name": "string",
                  "email_address": "string",
                  "date_of_birth": "string",
                  "created_at": "string",
                  "citizenship": "string",
                  "bankdata": {
                    "ip_address": "string"
                  }
                }
              }
            },
            "$ref": ""
          }
        },
        "requestBody": {
          "required": true,
          "content": {
            "application/json": {
              "schema": {
                "$ref": "#/components/schemas/PersonApplicationRequest"
              }
            }
          }
        }
      },
      "get": {
        "description": "Get Person Application",
        "parameters": [
          {
            "name": "id",
            "in": "path",
            "schema": {
              "type": "string"
            },
            "required": true,
            "description": "The id of the person application to get"
          }
        ],
        "operationId": "getPersonApplication",
        "responses": {
          "default": {
            "description": "Person Application Creation Response",
            "content": {
              "application/json": {
                "schema": {
                  "$ref": "#/components/schemas/PersonApplicationResponse"
                }
              }
            }
          }
        }
      }
    },
    "/apply/business_application": {
      "summary": "Interact with Business Applications",
      "post": {
        "description": "Create Business Application",
        "parameters": [],
        "operationId": "createBusinessApplication",
        "responses": {
          "default": {
            "description": "Business Application Creation Response",
            "content": {
              "application/json": {
                "schema": {
                  "$ref": "#/components/schemas/BusinessApplicationResponse"
                }
              }
            }
          }
        },
        "requestBody": {
          "required": true,
          "content": {
            "application/json": {
              "schema": {
                "$ref": "#/components/schemas/BusinessApplicationRequest"
              }
            }
          }
        }
      },
      "get": {
        "description": "Get Business Application",
        "parameters": [
          {
            "name": "id",
            "in": "path",
            "schema": {
              "type": "string"
            },
            "required": true,
            "description": "The id of the business application to get"
          }
        ],
        "operationId": "getBusinessApplication",
        "responses": {
          "default": {
            "description": "Business Application Get Response",
            "content": {
              "application/json": {
                "schema": {
                  "$ref": "#/components/schemas/BusinessApplicationResponse"
                }
              }
            }
          }
        }
      }
    },
    "/apply/account_application": {
      "summary": "Interact with Account Application",
      "post": {
        "description": "Create Account Application",
        "parameters": [],
        "operationId": "createAccountApplication",
        "responses": {
          "default": {
            "description": "Account Application Creation Response",
            "content": {
              "application/json": {
                "schema": {
                  "$ref": "#/components/schemas/AccountApplicationResponse"
                }
              }
            }
          }
        },
        "requestBody": {
          "required": true,
          "content": {
            "application/json": {
              "schema": {
                "$ref": "#/components/schemas/AccountApplicationRequest"
              }
            }
          }
        }
      }
    },
    "/apply/account_application/{id}": {
      "summary": "Interact with Account Applications by ID",
      "get": {
        "description": "Get Account Application",
        "parameters": [
          {
            "name": "id",
            "in": "path",
            "schema": {
              "type": "string"
            },
            "required": true,
            "description": "The id of the account application to get"
          }
        ],
        "operationId": "getAccountApplication",
        "responses": {
          "default": {
            "description": "Account Application Get Response",
            "content": {
              "application/json": {
                "schema": {
                  "$ref": "#/components/schemas/AccountApplicationResponse"
                }
              }
            }
          }
        }
      }
    },
    "/account/{id}": {
      "summary": "Interact with Accounts",
      "get": {
        "description": "Get Account by Id",
        "parameters": [
          {
            "name": "id",
            "in": "path",
            "schema": {
              "type": "string"
            },
            "required": true,
            "description": "The id of the account to get"
          }
        ],
        "operationId": "getAccount",
        "responses": {
          "default": {
            "description": "Account Get Response",
            "content": {
              "application/json": {
                "schema": {
                  "$ref": "#/components/schemas/AccountResponse"
                }
              }
            }
          }
        }
      }
    },
    "/counterparty": {
      "summary": "Interact with Counterparties",
      "post": {
        "description": "Create Counterparty",
        "parameters": [],
        "operationId": "createCounterparty",
        "responses": {
          "default": {
            "description": "Counterparty Creation Response",
            "content": {
              "application/json": {
                "schema": {
                  "$ref": "#/components/schemas/CounterpartyResponse"
                }
              }
            }
          }
        },
        "requestBody": {
          "required": true,
          "content": {
            "application/json": {
              "schema": {
                "$ref": "#/components/schemas/CounterpartyRequest"
              }
            }
          }
        }
      }
    },
    "/ach": {
      "summary": "Interact with ACH Transactions",
      "post": {
        "description": "Create ACH Transaction",
        "parameters": [
          {
            "in": "header",
            "name": "X-Idempotency-Key",
            "schema": {
              "type": "string"
            },
            "required": true
          }
        ],
        "operationId": "createACHTransaction",
        "responses": {
          "default": {
            "description": "ACH Transaction Creation Response",
            "content": {
              "application/json": {
                "schema": {
                  "$ref": "#/components/schemas/ACHTransactionResponse"
                }
              }
            }
          }
        },
        "requestBody": {
          "required": true,
          "content": {
            "application/json": {
              "schema": {
                "$ref": "#/components/schemas/ACHTransactionRequest"
              }
            }
          }
        }
      }
    },
    "/ach/{id}": {
      "summary": "Interact with ACH Transactions",
      "get": {
        "description": "Get ACH Transaction by ID",
        "parameters": [
          {
            "name": "id",
            "in": "path",
            "schema": {
              "type": "string"
            },
            "required": true,
            "description": "The id of the Transaction to get"
          }
        ],
        "operationId": "getACHTransaction",
        "responses": {
          "default": {
            "description": "ACH Transaction GET Response",
            "content": {
              "application/json": {
                "schema": {
                  "$ref": "#/components/schemas/ACHTransactionResponse"
                }
              }
            }
          }
        }
      }
    },
    "/setting": {
      "summary": "Get Account Settings and Limits",
      "get": {
        "description": "Get Account Settings",
        "operationId": "getSettings",
        "responses": {
          "default": {
            "description": "Settings GET Response",
            "content": {
              "application/json": {
                "schema": {
                  "$ref": "#/components/schemas/SettingsGETResponse"
                }
              }
            }
          }
        }
      }
    },
    "/counterparty/{id}": {
      "summary": "Interact with Counterparties",
      "get": {
        "description": "Get Counterparty by id",
        "parameters": [{
          "name": "id",
          "in": "path",
          "schema": {
            "type": "string"
          },
          "required": true,
          "description": "The id of the counterparty to get"
        }],
        "operationId": "getCounterparty",
        "responses": {
          "default": {
            "description": "Counterparty Get Response",
            "content": {
              "application/json": {
                "schema": {
                  "$ref": "#/components/schemas/CounterpartyResponse"
                }
              }
            }
          }
        }
      }
    },
    "/account/{id}/transaction": {
      "summary": "Interact with Account Transactions",
      "get": {
        "description": "Get Account Transactions by Account id",
        "parameters": [
          {
            "name": "id",
            "in": "path",
            "schema": {
              "type": "string"
            },
            "required": true,
            "description": "The id of the counterparty to get"
          },
          {
            "name": "page_size",
            "in": "query",
            "schema": {
              "type": "integer"
            },
            "description": "Paging Size"
          },
          {
            "name": "page_cursor",
            "in": "query",
            "schema": {
              "type": "integer"
            },
            "description": "Paging Cursor"
          }
        ],
        "operationId": "getAccountTransactions",
        "responses": {
          "default": {
            "description": "Account Transactions Get Response",
            "content": {
              "application/json": {
                "schema": {
                    "$ref": "#/components/schemas/CounterpartyResponse"
                }
              }
            }
          }
        }
      }
    },
    "/wire": {
      "summary": "Interactions with TP Wire Transfers",
      "post": {
        "description": "Create Wire Transfer",
        "parameters": [
          {
            "in": "header",
            "name": "X-Idempotency-Key",
            "schema": {
              "type": "string"
            },
            "required": true
          }
        ],
        "operationId": "createWireTransfer",
        "responses": {
          "default": {
            "description": "Wire Transfer Creation Response",
            "content": {
              "application/json": {
                "schema": {
                  "$ref": "#/components/schemas/WireTransferResponse"
                }
              }
            }
          }
        },
        "requestBody": {
          "required": true,
          "content": {
            "application/json": {
              "schema": {
                "$ref": "#/components/schemas/WireTransferRequest"
              }
            }
          }
        }
      }
    },
    "/wire/{id}": {
      "summary": "Interact with a TP Wire Transfer",
      "get": {
        "description": "Get Wire Transfer by ID",
        "parameters": [
          {
            "name": "id",
            "in": "path",
            "schema": {
              "type": "string"
            },
            "required": true,
            "description": "The id of the Wire to get"
          }
        ],
        "operationId": "getWireTransfer",
        "responses": {
          "default": {
            "description": "Wire Transfer GET Response",
            "content": {
              "application/json": {
                "schema": {
                  "$ref": "#/components/schemas/WireTransferResponse"
                }
              }
            }
          }
        }
      },
      "patch": {
        "description": "Update Wire Transfer",
        "operationId": "updateWireTransfer",
        "responses": {
          "default": {
            "description": "Wire Transfer Update Response",
            "content": {
              "application/json": {
                "schema": {
                  "$ref": "#/components/schemas/WireTransferResponse"
                }
              }
            }
          }
        },
        "requestBody": {
          "required": true,
          "content": {
            "application/json": {
              "schema": {
                "$ref": "#/components/schemas/WireTransferRequest"
              }
            }
          }
        }
      }
    },
    "/book": {
      "summary": "Interactions with TP Book Transfers",
      "post": {
        "description": "Create Book Transfer",
        "parameters": [
          {
            "in": "header",
            "name": "X-Idempotency-Key",
            "schema": {
              "type": "string"
            },
            "required": true
          }
        ],
        "operationId": "createBookTransfer",
        "responses": {
          "default": {
            "description": "Book Transfer Creation Response",
            "content": {
              "application/json": {
                "schema": {
                  "$ref": "#/components/schemas/BookTransferResponse"
                }
              }
            }
          }
        },
        "requestBody": {
          "required": true,
          "content": {
            "application/json": {
              "schema": {
                "$ref": "#/components/schemas/BookTransferRequest"
              }
            }
          }
        }
      },
      "get": {
        "description": "Get All Book Transfers",
        "operationId": "getAllBookTransfers",
        "responses": {
          "default": {
            "description": "All Book Transfer GET Response",
            "content": {
              "application/json": {
                "schema": {
                  "data": {
                    "type": "array",
                    "items": {
                      "$ref": "#/components/schemas/BookTransferResponse"
                    }
                  }
                }
              }
            }
          }
        }
      }
    },
    "/book/{id}": {
      "summary": "Interact with a TP Book Transfer",
      "get": {
        "description": "Get Book Transfer by ID",
        "parameters": [
          {
            "name": "id",
            "in": "path",
            "schema": {
              "type": "string"
            },
            "required": true,
            "description": "The id of the Book to get"
          }
        ],
        "operationId": "getBookTransfer",
        "responses": {
          "default": {
            "description": "Book Transfer GET Response",
            "content": {
              "application/json": {
                "schema": {
                  "$ref": "#/components/schemas/BookTransferResponse"
                }
              }
            }
          }
        }
      }
    }
  },
  "externalDocs": {
    "url": "https://developers.treasuryprime.com/docs"
  },
  "security": [
    {
      "basicAuth": []
    }
  ],
  "components": {
    "callbacks": {},
    "links": {},
    "schemas": {
      "PersonApplicationRequest": {
        "citizenship": "string",
        "document_ids": [],
        "date_of_birth": "string",
        "occupation": "string",
        "userdata": {},
        "tin": "string",
        "physical_address": {
          "$ref": "#/components/schemas/Address"
        },
        "phone_number": "string",
        "middle_name": "string",
        "mailing_address": {
          "$ref": "#/components/schemas/Address"
        },
        "last_name": "string",
        "first_name": "string",
        "email_address": "string",
        "bankdata": "object",
        "$ref": ""
      },
      "PersonApplicationResponse": {
        "citizenship": "string",
        "document_ids": [],
        "date_of_birth": "string",
        "occupation": "string",
        "userdata": "object",
        "id": "string",
        "tin": "string",
        "physical_address": {
          "$ref": "#/components/schemas/Address"
        },
        "phone_number": "string",
        "middle_name": "string",
        "mailing_address": {
          "$ref": "#/components/schemas/Address"
        },
        "last_name": "string",
        "first_name": "string",
        "email_address": "string",
        "bankdata": "object",
        "$ref": ""
      },
      "BusinessApplicationResponse": {
        "bank_id": "string",
        "created_at": "string",
        "id": "string",
        "bankdata": "object",
        "dba": "string",
        "description": "string",
        "document_ids": {
          "type": "array",
          "items": {
            "type": "string"
          }
        },
        "established_on": "string",
        "incorporation_state": "string",
        "legal_structure": "string",
        "mailing_address": {
          "$ref": "#/components/schemas/Address"
        },
        "naics": "string",
        "naics_description": "string",
        "name": "string",
        "parent_businesses": {
          "type": "array",
          "items": {
            "id": "string",
            "ownership_percentage": "integer"
          }
        },
        "person_applications": {
          "type": "array",
          "items": {
            "id": "string",
            "roles": "string",
            "ownership_percentage": "integer",
            "title": "string"
          }
        },
        "phone_number": "string",
        "physical_address": {
          "$ref": "#/components/schemas/Address"
        },
        "tin": "string",
        "urls": {
          "type": "array",
          "items": {
            "type": "string"
          }
        },
        "userdata": "object",
        "$ref": ""
      },
      "BusinessApplicationRequest": {
        "bank_id": "string",
        "created_at": "string",
        "id": "string",
        "bankdata": "object",
        "dba": "string",
        "description": "string",
        "document_ids": {
          "type": "array",
          "items": {
            "type": "string"
          }
        },
        "established_on": "string",
        "incorporation_state": "string",
        "legal_structure": "string",
        "mailing_address": {
          "$ref": "#/components/schemas/Address"
        },
        "naics": "string",
        "naics_description": "string",
        "name": "string",
        "parent_businesses": {
          "type": "array",
          "items": {
            "id": "string",
            "ownership_percentage": "integer"
          }
        },
        "person_applications": {
          "type": "array",
          "items": {
            "id": "string",
            "roles": "string",
            "ownership_percentage": "integer",
            "title": "string"
          }
        },
        "phone_number": "string",
        "physical_address": {
          "$ref": "#/components/schemas/Address"
        },
        "tin": "string",
        "urls": {
          "type": "array",
          "items": {
            "type": "string"
          }
        },
        "userdata": "object",
        "$ref": ""
      },
      "Address": {
        "postal_code": "string",
        "state": "string",
        "city": "string",
        "street_line_2": "string",
        "street_line_1": "string",
        "$ref": ""
      },
      "AccountApplicationRequest": {
        "bankdata": "object",
        "deposit_id": "string",
        "product": "string",
        "userdata": "object",
        "primary_person_application_id": "string",
        "business_application_id": "string",
        "person_applications": "object",
        "$ref": ""
      },
      "AccountApplicationResponse": {
        "account_id": "string",
        "created_at": "string",
        "updated_at": "string",
        "status": "string",
        "bankdata": "object",
        "deposit_id": "string",
        "product": "string",
        "userdata": "object",
        "primary_person_application_id": "string",
        "business_application_id": "string",
        "person_applications": "object",
        "$ref": ""
      },
      "AccountResponse": {
        "account_number": "string",
        "account_type": "string",
        "address": {
          "$ref": "#/components/schemas/Address"
        },
        "available_balance": "string",
        "business_ids": {
          "type": "array",
          "items": {
            "type": "string"
          }
        },
        "created_at": "string",
        "currency": "string",
        "current_balance": "string",
        "id": "string",
        "name": "string",
        "primary_person_id": "string",
        "person_ids": {
          "type": "array",
          "items": {
            "type": "string"
          }
        },
        "routing_number": "string",
        "status": "string",
        "locked": "boolean",
        "funded": "boolean",
        "updated_at": "string",
        "userdata": "object",
        "$ref": ""
      },
      "CounterpartyACH": {
        "account_number": "string",
        "account_type": "string",
        "routing_number": "string",
        "$ref": ""
      },
      "CounterpartyWire": {
        "account_number": "string",
        "routing_number": "string",
        "bank_name": "string",
        "address_on_account": {
          "$ref": "#/components/schemas/Address"
        },
        "bank_address": {
          "$ref": "#/components/schemas/Address"
        },
        "$ref": ""
      },
      "CounterpartyResponse": {
        "id": "string",
        "created_at": "string",
        "name_on_account": "string",
        "updated_at": "string",
        "userdata": "object",
        "ach": {
          "$ref": "#/components/schemas/CounterpartyACH"
        },
        "wire": {
          "$ref": "#/components/schemas/CounterpartyWire"
        },
        "$ref": ""
      },
      "CounterpartyRequest": {
        "name_on_account": "string",
        "userdata": "object",
        "ach": {
          "$ref": "#/components/schemas/CounterpartyACH"
        },
        "wire": {
          "$ref": "#/components/schemas/CounterpartyWire"
        },
        "$ref": ""
      },
      "ACHTransactionRequest": {
        "account_id": "string",
        "amount": "string",
        "counterparty_id": "string",
        "direction": "string",
        "sec_code": "string",
        "addenda": "array",
        "description": "string",
        "service": "string",
        "userdata": "object",
        "$ref": ""
      },
      "ACHTransactionResponse": {
        "account_id": "string",
        "amount": "string",
        "counterparty_id": "string",
        "direction": "string",
        "sec_code": "string",
        "addenda": "array",
        "description": "string",
        "service": "string",
        "userdata": "object",
        "created_at": "string",
        "effective_date": "string",
        "error": "string",
        "id": "string",
        "status": "string",
        "$ref": ""
      },
      "AccountTransactionResponse": {
        "$ref": "",
        "type": "object",
        "data": {
          "type": "array",
          "items": {
            "achId": "string",
            "amount": "number",
            "balance": "number",
            "checkId": "string",
            "checkNumber": "string",
            "date": "string",
            "desc": "string",
            "fingerprint": "string",
            "id": "string",
            "summary": "string",
            "type": "string",
            "wire": "string",
            "wireId": "string"
          }
        }
      },
      "SettingsGETResponse": {
        "created_at": "string",
        "updated_at": "string",
        "ach_limit_credit": "string",
        "id": "string",
        "wire_approvals": "number",
        "wire_daily_limit": "string",
        "ach_limit_debit": "string"
      },
      "IntermediaryBank": {
        "name": "string",
        "routing_number": "string",
        "address" : {
          "$ref":"#/components/schemas/Address"
        }
      },
      "WireTransferRequest": {
        "account_id": "string",
        "amount": "string",
        "counterparty_id": "string",
        "instructions": "string",
        "intermediary": {
          "$ref": "#/components/schemas/IntermediaryBank"
        },
        "userdata": "object"
      },
      "WireTransferResponse": {
        "account_id": "string",
        "amount": "string",
        "counterparty_id": "string",
        "instructions": "string",
        "intermediary": {
          "$ref": "#/components/schemas/IntermediaryBank"
        },
        "created_at": "string",
        "error": "string",
        "id": "string",
        "status": "string",
        "updated_at": "string",
        "userdata": {}
      },
      "BookTransferRequest": {
        "amount": "string",
        "description": "string",
        "from_account_id": "string",
        "to_account_id": "string",
        "userdata": "object"
      },
      "BookTransferResponse": {
        "amount": "string",
        "created_at": "string",
        "description": "string",
        "error": "string",
        "from_account_id": "string",
        "id": "string",
        "status": "string",
        "to_account_id": "string",
        "updated_at": "string",
        "userdata": {}
      }
    },
    "securitySchemes": {
      "basicAuth": {
        "type": "http",
        "scheme": "basic"
      }
    }
  }
}
