// Jest Snapshot v1, https://goo.gl/fbAQLP

exports[`Label with Tooltip Matches Snapshot 1`] = `
<label>
  labelText
  <i
    aria-hidden="true"
    className="red question circle icon Icon-f-right"
    onBlur={[Function]}
    onClick={[Function]}
    onFocus={[Function]}
    onMouseEnter={[Function]}
    onMouseLeave={[Function]}
  />
</label>
`;
