{
  "AWS": {
    "region": "us-east-2",
    "s3BucketEndpoint": true,
    "endpoint": "https://s3.us-east-2.amazonaws.com",
    "accessKeyId": "AKIAVHXVIE4RWGQJ4TS5",
    "secretAccessKey": "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"
  },
  "ServerIP": "https://doccontroldev.assuretech.io",
  "tempFolderPath": "server/tmp"
}
